Lifestyle as a predictor of loneliness: a longitudinal study
…
        # Step 5: Standardize PHQ-9 and GAD-7 scores
        dplyr::across(
            dplyr::matches("^(phq|gad)_total$"),
            \(x) (x - mean(x)) / sd(x)
        ),
        # Step 6: Dichotomize skin color in white/non-white subjects
        color = dplyr::case_match(color,
            "Branca" ~ "White",
            c("Parda", "Preta", "Amarela", "Indigena") ~ "Non-white"
        ),
        # Step 7: Dichotomize AUDIT risk score
        classif_audit = classif_audit
    )

# A tibble: 473 × 30
   ucla_total ucla_total_w4 gender_birth heterossexual color     year_birth
        <dbl>         <dbl> <fct>        <fct>         <chr>          <dbl>
 1          3             3 Female       sim           Non-white       1994
 2          5             3 Female       sim           White           1998
 3          5             3 Female       sim           White           1968
 4          4             3 Female       sim           Non-white       1964
 5          3             3 Female       sim           White           1965
 6          3             4 Female       sim           Non-white       1998
 7          3             3 Female       sim           White           1980
 8          4             6 Female       sim           Non-white       1991
 9          5             3 Female       sim           White           1981
10          4             5 Female       não           White           1979
# ℹ 463 more rows
# ℹ 24 more variables: education <fct>, education_grouped <fct>,
#   household_income <fct>, number_people_house <dbl>, unemployed <fct>,
#   social_distancing <fct>, phq_total <dbl>, gad_total <dbl>,
#   classif_audit <fct>, marijuana_frequency <fct>,
#   physical_activity_dichotomized <fct>, physical_activity_grouped <fct>,
#   sleep_quality <fct>, marital_status_grouped <fct>, …
…
